<svg width="16" height="16" viewBox="0 0 16 16" fill="none" xmlns="http://www.w3.org/2000/svg">
<path fill-rule="evenodd" clip-rule="evenodd" d="M14.3501 8.0001C14.3501 8.46954 13.9695 8.8501 13.5001 8.8501L2.5001 8.8501C2.03065 8.8501 1.6501 8.46954 1.6501 8.0001C1.6501 7.53066 2.03065 7.1501 2.5001 7.1501L13.5001 7.1501C13.9695 7.1501 14.3501 7.53066 14.3501 8.0001Z" />
<path fill-rule="evenodd" clip-rule="evenodd" d="M7.60114 13.1011C7.26919 13.4331 6.731 13.4331 6.39906 13.1011L1.89906 8.60114C1.56711 8.26919 1.56711 7.731 1.89906 7.39906L6.39906 2.89906C6.731 2.56711 7.26919 2.56711 7.60114 2.89906C7.93308 3.231 7.93308 3.76919 7.60114 4.10114L3.70218 8.0001L7.60114 11.8991C7.93308 12.231 7.93308 12.7692 7.60114 13.1011Z" />
</svg>
