<svg width="24" height="24" viewBox="0 0 24 24" fill="none" xmlns="http://www.w3.org/2000/svg">
<g clip-path="url(#clip0_402_212)">
<path d="M9 12H15"  stroke-width="1.5" stroke-linecap="round" stroke-linejoin="round"/>
<path d="M12 9V15"  stroke-width="1.5" stroke-linecap="round" stroke-linejoin="round"/>
<path d="M4 6V5C4 4.73478 4.10536 4.48043 4.29289 4.29289C4.48043 4.10536 4.73478 4 5 4H6M11 4H13M18 4H19C19.2652 4 19.5196 4.10536 19.7071 4.29289C19.8946 4.48043 20 4.73478 20 5V6M20 11V13M20 18V19C20 19.2652 19.8946 19.5196 19.7071 19.7071C19.5196 19.8946 19.2652 20 19 20H18M13 20H11M6 20H5C4.73478 20 4.48043 19.8946 4.29289 19.7071C4.10536 19.5196 4 19.2652 4 19V18M4 13V11"  stroke-width="1.5" stroke-linecap="round" stroke-linejoin="round"/>
</g>
<defs>
<clipPath id="clip0_402_212">
<rect width="24" height="24" fill="white"/>
</clipPath>
</defs>
</svg>
