<svg width="28" height="28" viewBox="0 0 28 28" fill="none" xmlns="http://www.w3.org/2000/svg">
    <g clip-path="url(#clip0_1045_16094)">
        <path d="M21 7V7.01167" stroke-width="2" stroke-linecap="round" stroke-linejoin="round" />
        <path
            d="M21.0007 15.1665L16.9173 9.33313C16.5242 8.62267 16.3233 7.82194 16.3344 7.01006C16.3455 6.19818 16.5683 5.40325 16.9806 4.7038C17.393 4.00436 17.9808 3.42461 18.6858 3.02184C19.3908 2.61908 20.1887 2.40723 21.0007 2.40723C21.8126 2.40723 22.6105 2.61908 23.3155 3.02184C24.0206 3.42461 24.6083 4.00436 25.0207 4.7038C25.433 5.40325 25.6558 6.19818 25.6669 7.01006C25.678 7.82194 25.4771 8.62267 25.084 9.33313L21.0007 15.1665Z"
            stroke-width="2" stroke-linecap="round" stroke-linejoin="round" />
        <path d="M12.25 5.54199L10.5 4.66699L3.5 8.16699V23.3337L10.5 19.8337L17.5 23.3337L24.5 19.8337V17.5003"
            stroke-width="2" stroke-linecap="round" stroke-linejoin="round" />
        <path d="M10.5 4.66699V19.8337" stroke-width="2" stroke-linecap="round" stroke-linejoin="round" />
        <path d="M17.5 17.5V23.3333" stroke-width="2" stroke-linecap="round" stroke-linejoin="round" />
    </g>

</svg>