<svg width="20" height="20" viewBox="0 0 20 20" fill="none" xmlns="http://www.w3.org/2000/svg">
<path fill-rule="evenodd" clip-rule="evenodd" d="M3.41675 10C3.41675 10.4142 3.75253 10.75 4.16675 10.75L15.8334 10.75C16.2476 10.75 16.5834 10.4142 16.5834 10C16.5834 9.58579 16.2476 9.25 15.8334 9.25L4.16675 9.25C3.75253 9.25 3.41675 9.58579 3.41675 10Z" />
<path fill-rule="evenodd" clip-rule="evenodd" d="M16.3637 10.5303C16.6566 10.2374 16.6566 9.76256 16.3637 9.46967L13.0303 6.13634C12.7374 5.84344 12.2626 5.84344 11.9697 6.13634C11.6768 6.42923 11.6768 6.9041 11.9697 7.197L15.303 10.5303C15.5959 10.8232 16.0708 10.8232 16.3637 10.5303Z" />
<path fill-rule="evenodd" clip-rule="evenodd" d="M11.9697 13.8638C12.2626 14.1567 12.7374 14.1567 13.0303 13.8638L16.3637 10.5305C16.6566 10.2376 16.6566 9.76273 16.3637 9.46983C16.0708 9.17694 15.5959 9.17694 15.303 9.46983L11.9697 12.8032C11.6768 13.0961 11.6768 13.5709 11.9697 13.8638Z" />
</svg>
