<svg width="20" height="20" viewBox="0 0 20 20" fill="none" xmlns="http://www.w3.org/2000/svg">
<g clip-path="url(#clip0_1203_146)">
<path d="M15.625 8.75V15.6953C15.625 15.8424 15.5666 15.9835 15.4625 16.0875C15.3585 16.1916 15.2174 16.25 15.0703 16.25H3.125C2.95924 16.25 2.80027 16.1842 2.68306 16.0669C2.56585 15.9497 2.5 15.7908 2.5 15.625V6.875C2.5 6.70924 2.56585 6.55027 2.68306 6.43306C2.80027 6.31585 2.95924 6.25 3.125 6.25H6.66406C6.7992 6.25056 6.93062 6.29436 7.03906 6.375L9.21094 8C9.31938 8.08064 9.4508 8.12444 9.58594 8.125H15C15.1658 8.125 15.3247 8.19085 15.4419 8.30806C15.5592 8.42527 15.625 8.58424 15.625 8.75Z" stroke="white" stroke-width="1.5" stroke-linecap="round" stroke-linejoin="round"/>
<path d="M15.625 8.75V15.6953C15.625 15.8424 15.5666 15.9835 15.4625 16.0875C15.3585 16.1916 15.2174 16.25 15.0703 16.25H3.125C2.95924 16.25 2.80027 16.1842 2.68306 16.0669C2.56585 15.9497 2.5 15.7908 2.5 15.625V6.875C2.5 6.70924 2.56585 6.55027 2.68306 6.43306C2.80027 6.31585 2.95924 6.25 3.125 6.25H6.66406C6.7992 6.25056 6.93062 6.29436 7.03906 6.375L9.21094 8C9.31938 8.08064 9.4508 8.12444 9.58594 8.125H15C15.1658 8.125 15.3247 8.19085 15.4419 8.30806C15.5592 8.42527 15.625 8.58424 15.625 8.75Z" stroke="white" stroke-width="1.5" stroke-linecap="round" stroke-linejoin="round"/>
<path d="M5 6.25V4.375C5 4.20924 5.06585 4.05027 5.18306 3.93306C5.30027 3.81585 5.45924 3.75 5.625 3.75H9.16406C9.2992 3.75056 9.43062 3.79436 9.53906 3.875L11.7109 5.5C11.8194 5.58064 11.9508 5.62444 12.0859 5.625H17.5C17.6658 5.625 17.8247 5.69085 17.9419 5.80806C18.0592 5.92527 18.125 6.08424 18.125 6.25V13.1953C18.125 13.3424 18.0666 13.4835 17.9625 13.5875C17.8585 13.6916 17.7174 13.75 17.5703 13.75H15.625" stroke="white" stroke-width="1.5" stroke-linecap="round" stroke-linejoin="round"/>
</g>
<defs>
<clipPath id="clip0_1203_146">
<rect width="20" height="20" fill="white"/>
</clipPath>
</defs>
</svg>
